// Jest Snapshot v1, https://goo.gl/fbAQLP

exports[`Authentication Should allow to log in 1`] = `
Object {
  "login": Object {
    "email": "hazel.mckinney24@example.com",
    "name": "Hazel Mckinney",
    "scopes": Array [
      "article:publish",
    ],
  },
}
`;
